#Command:  
C:\PROGRAM FILES (X86)\MICROSOFT VISUAL STUDIO 14.0\VC\BIN\VCTIP.EXE
C:\WINDOWS\SYSTEM32\NTDLL.DLL
C:\WINDOWS\SYSTEM32\MSCOREE.DLL
C:\WINDOWS\SYSTEM32\KERNEL32.DLL
C:\WINDOWS\SYSTEM32\KERNELBASE.DLL
C:\PROGRAM FILES (X86)\MSBUILD\14.0\BIN\FILETRACKER.DLL
C:\WINDOWS\SYSTEM32\API-MS-WIN-CRT-STDIO-L1-1-0.DLL
C:\WINDOWS\SYSTEM32\VCRUNTIME140.DLL
C:\WINDOWS\SYSTEM32\API-MS-WIN-CRT-RUNTIME-L1-1-0.DLL
C:\WINDOWS\SYSTEM32\API-MS-WIN-CRT-MATH-L1-1-0.DLL
C:\WINDOWS\SYSTEM32\API-MS-WIN-CRT-LOCALE-L1-1-0.DLL
C:\WINDOWS\SYSTEM32\API-MS-WIN-CRT-HEAP-L1-1-0.DLL
C:\WINDOWS\SYSTEM32\ADVAPI32.DLL
C:\WINDOWS\SYSTEM32\API-MS-WIN-CRT-STRING-L1-1-0.DLL
C:\WINDOWS\SYSTEM32\API-MS-WIN-CRT-FILESYSTEM-L1-1-0.DLL
C:\WINDOWS\SYSTEM32\API-MS-WIN-CRT-CONVERT-L1-1-0.DLL
C:\WINDOWS\SYSTEM32\OLE32.DLL
C:\WINDOWS\SYSTEM32\OLEAUT32.DLL
C:\WINDOWS\SYSTEM32\MSVCP140.DLL
C:\WINDOWS\SYSTEM32\SHELL32.DLL
C:\WINDOWS\SYSTEM32\MSVCRT.DLL
C:\WINDOWS\SYSTEM32\SECHOST.DLL
C:\WINDOWS\SYSTEM32\RPCRT4.DLL
C:\WINDOWS\SYSTEM32\COMBASE.DLL
C:\WINDOWS\SYSTEM32\GDI32.DLL
C:\WINDOWS\SYSTEM32\USER32.DLL
C:\WINDOWS\SYSTEM32\API-MS-WIN-CRT-MULTIBYTE-L1-1-0.DLL
C:\WINDOWS\SYSTEM32\API-MS-WIN-CRT-TIME-L1-1-0.DLL
C:\WINDOWS\SYSTEM32\API-MS-WIN-CRT-ENVIRONMENT-L1-1-0.DLL
C:\WINDOWS\SYSTEM32\API-MS-WIN-CRT-UTILITY-L1-1-0.DLL
C:\WINDOWS\SYSTEM32\SHLWAPI.DLL
C:\WINDOWS\SYSTEM32\CRYPTBASE.DLL
C:\WINDOWS\SYSTEM32\SSPICLI.DLL
C:\WINDOWS\SYSTEM32\UCRTBASE.DLL
C:\WINDOWS\SYSTEM32\BCRYPTPRIMITIVES.DLL
C:\WINDOWS\SYSTEM32\IMM32.DLL
C:\WINDOWS\SYSTEM32\MSCTF.DLL
C:\WINDOWS\MICROSOFT.NET\FRAMEWORK\V4.0.30319\MSCOREEI.DLL
C:\WINDOWS\SYSTEM32\KERNEL.APPCORE.DLL
C:\WINDOWS\SYSTEM32\VERSION.DLL
C:\WINDOWS\MICROSOFT.NET\FRAMEWORK\V4.0.30319\CLR.DLL
C:\WINDOWS\SYSTEM32\MSVCR120_CLR0400.DLL
C:\WINDOWS\ASSEMBLY\NATIVEIMAGES_V4.0.30319_32\MSCORLIB\30BF1921503412FA2B0B70C448BD4AB8\MSCORLIB.NI.DLL
C:\WINDOWS\MICROSOFT.NET\FRAMEWORK\V4.0.30319\CLRJIT.DLL
C:\WINDOWS\SYSTEM32\SHCORE.DLL
C:\WINDOWS\ASSEMBLY\NATIVEIMAGES_V4.0.30319_32\SYSTEM\ACAA4A27790585D396DE253BA8571993\SYSTEM.NI.DLL
C:\WINDOWS\ASSEMBLY\NATIVEIMAGES_V4.0.30319_32\SYSTEM.CORE\889079047A55609489D42A37C04478C7\SYSTEM.CORE.NI.DLL
C:\WINDOWS\SYSTEM32\SQMAPI.DLL
C:\WINDOWS\SYSTEM32\BCRYPT.DLL
C:\WINDOWS\SYSTEM32\PROFAPI.DLL
C:\WINDOWS\SYSTEM32\CLBCATQ.DLL
C:\WINDOWS\SYSTEM32\CRYPTSP.DLL
C:\WINDOWS\SYSTEM32\RSAENH.DLL
C:\WINDOWS\ASSEMBLY\NATIVEIMAGES_V4.0.30319_32\SYSTEM.CONFIGURATION\7E892EDC81C95C88DA69F42F591BE611\SYSTEM.CONFIGURATION.NI.DLL
C:\WINDOWS\ASSEMBLY\NATIVEIMAGES_V4.0.30319_32\SYSTEM.XML\70252E7FB1F7BA07A4D281FC62C7B33E\SYSTEM.XML.NI.DLL
C:\WINDOWS\ASSEMBLY\NATIVEIMAGES_V4.0.30319_32\SYSTEM.DRAWING\772E4A9FEB9977A8BB29DAA474824E61\SYSTEM.DRAWING.NI.DLL
C:\WINDOWS\ASSEMBLY\NATIVEIMAGES_V4.0.30319_32\SYSTEM.WINDOWS.FORMS\5F150B14221D71A468B341969BC41E3B\SYSTEM.WINDOWS.FORMS.NI.DLL
C:\WINDOWS\SYSTEM32\RASAPI32.DLL
C:\WINDOWS\SYSTEM32\RASMAN.DLL
C:\WINDOWS\SYSTEM32\WS2_32.DLL
C:\WINDOWS\SYSTEM32\NSI.DLL
C:\WINDOWS\SYSTEM32\RTUTILS.DLL
C:\WINDOWS\SYSTEM32\MSWSOCK.DLL
C:\WINDOWS\SYSTEM32\UXTHEME.DLL
C:\WINDOWS\SYSTEM32\WINHTTP.DLL
C:\WINDOWS\SYSTEM32\IPHLPAPI.DLL
C:\WINDOWS\SYSTEM32\WINNSI.DLL
C:\WINDOWS\SYSTEM32\DHCPCSVC6.DLL
C:\WINDOWS\SYSTEM32\DHCPCSVC.DLL
C:\WINDOWS\WINSXS\X86_MICROSOFT.WINDOWS.GDIPLUS_6595B64144CCF1DF_1.1.9600.18790_NONE_DAE0E7DE5BC4763C\GDIPLUS.DLL
C:\WINDOWS\SYSTEM32\DNSAPI.DLL
C:\WINDOWS\SYSTEM32\WKSCLI.DLL
C:\WINDOWS\SYSTEM32\NETUTILS.DLL
C:\WINDOWS\SYSTEM32\RASADHLP.DLL
C:\WINDOWS\SYSTEM32\FWPUCLNT.DLL
C:\WINDOWS\SYSTEM32\PSAPI.DLL
C:\WINDOWS\SYSTEM32\SECUR32.DLL
C:\WINDOWS\SYSTEM32\SCHANNEL.DLL
C:\WINDOWS\SYSTEM32\CRYPT32.DLL
C:\WINDOWS\SYSTEM32\MSASN1.DLL
C:\WINDOWS\SYSTEM32\NCRYPT.DLL
C:\WINDOWS\SYSTEM32\NTASN1.DLL
C:\WINDOWS\SYSTEM32\NCRYPTSSLP.DLL
C:\WINDOWS\SYSTEM32\GPAPI.DLL
C:\WINDOWS\ASSEMBLY\NATIVEIMAGES_V4.0.30319_32\SYSTEM.XML.LINQ\F0D86EE4128A84D2460E3FD6E51695BA\SYSTEM.XML.LINQ.NI.DLL
C:\WINDOWS\MICROSOFT.NET\FRAMEWORK\V4.0.30319\DIASYMREADER.DLL
C:\WINDOWS\ASSEMBLY\NATIVEIMAGES_V4.0.30319_32\SYSTEM.NET.HTTP\91D6335BCBD615BF9CD338DF83DDDEC8\SYSTEM.NET.HTTP.NI.DLL
C:\WINDOWS\MICROSOFT.NET\FRAMEWORK\V4.0.30319\CLRCOMPRESSION.DLL
C:\WINDOWS\SYSTEM32\WER.DLL
C:\WINDOWS\SYSTEM32\NTMARTA.DLL
C:\WINDOWS\SYSTEM32\DBGHELP.DLL
C:\PROGRAM FILES (X86)\MICROSOFT VISUAL STUDIO 14.0\VC\BIN\VCTIP.EXE
C:\WINDOWS\SYSTEM32\NTDLL.DLL
C:\WINDOWS\SYSTEM32\MSCOREE.DLL
C:\WINDOWS\SYSTEM32\KERNEL32.DLL
C:\WINDOWS\SYSTEM32\KERNELBASE.DLL
C:\PROGRAM FILES (X86)\MSBUILD\14.0\BIN\FILETRACKER.DLL
C:\WINDOWS\SYSTEM32\API-MS-WIN-CRT-STDIO-L1-1-0.DLL
C:\WINDOWS\SYSTEM32\VCRUNTIME140.DLL
C:\WINDOWS\SYSTEM32\API-MS-WIN-CRT-RUNTIME-L1-1-0.DLL
C:\WINDOWS\SYSTEM32\API-MS-WIN-CRT-MATH-L1-1-0.DLL
C:\WINDOWS\SYSTEM32\API-MS-WIN-CRT-LOCALE-L1-1-0.DLL
C:\WINDOWS\SYSTEM32\API-MS-WIN-CRT-HEAP-L1-1-0.DLL
C:\WINDOWS\SYSTEM32\ADVAPI32.DLL
C:\WINDOWS\SYSTEM32\API-MS-WIN-CRT-STRING-L1-1-0.DLL
C:\WINDOWS\SYSTEM32\API-MS-WIN-CRT-FILESYSTEM-L1-1-0.DLL
C:\WINDOWS\SYSTEM32\API-MS-WIN-CRT-CONVERT-L1-1-0.DLL
C:\WINDOWS\SYSTEM32\OLE32.DLL
C:\WINDOWS\SYSTEM32\OLEAUT32.DLL
C:\WINDOWS\SYSTEM32\MSVCP140.DLL
C:\WINDOWS\SYSTEM32\SHELL32.DLL
C:\WINDOWS\SYSTEM32\MSVCRT.DLL
C:\WINDOWS\SYSTEM32\SECHOST.DLL
C:\WINDOWS\SYSTEM32\RPCRT4.DLL
C:\WINDOWS\SYSTEM32\COMBASE.DLL
C:\WINDOWS\SYSTEM32\GDI32.DLL
C:\WINDOWS\SYSTEM32\USER32.DLL
C:\WINDOWS\SYSTEM32\API-MS-WIN-CRT-MULTIBYTE-L1-1-0.DLL
C:\WINDOWS\SYSTEM32\API-MS-WIN-CRT-TIME-L1-1-0.DLL
C:\WINDOWS\SYSTEM32\API-MS-WIN-CRT-ENVIRONMENT-L1-1-0.DLL
C:\WINDOWS\SYSTEM32\API-MS-WIN-CRT-UTILITY-L1-1-0.DLL
C:\WINDOWS\SYSTEM32\SHLWAPI.DLL
C:\WINDOWS\SYSTEM32\CRYPTBASE.DLL
C:\WINDOWS\SYSTEM32\SSPICLI.DLL
C:\WINDOWS\SYSTEM32\UCRTBASE.DLL
C:\WINDOWS\SYSTEM32\BCRYPTPRIMITIVES.DLL
C:\WINDOWS\SYSTEM32\IMM32.DLL
C:\WINDOWS\SYSTEM32\MSCTF.DLL
C:\WINDOWS\MICROSOFT.NET\FRAMEWORK\V4.0.30319\MSCOREEI.DLL
C:\WINDOWS\SYSTEM32\KERNEL.APPCORE.DLL
C:\WINDOWS\SYSTEM32\VERSION.DLL
C:\WINDOWS\MICROSOFT.NET\FRAMEWORK\V4.0.30319\CLR.DLL
C:\WINDOWS\SYSTEM32\MSVCR120_CLR0400.DLL
C:\WINDOWS\ASSEMBLY\NATIVEIMAGES_V4.0.30319_32\MSCORLIB\30BF1921503412FA2B0B70C448BD4AB8\MSCORLIB.NI.DLL
C:\WINDOWS\MICROSOFT.NET\FRAMEWORK\V4.0.30319\CLRJIT.DLL
C:\WINDOWS\SYSTEM32\SHCORE.DLL
C:\WINDOWS\ASSEMBLY\NATIVEIMAGES_V4.0.30319_32\SYSTEM\ACAA4A27790585D396DE253BA8571993\SYSTEM.NI.DLL
C:\WINDOWS\ASSEMBLY\NATIVEIMAGES_V4.0.30319_32\SYSTEM.CORE\889079047A55609489D42A37C04478C7\SYSTEM.CORE.NI.DLL
C:\WINDOWS\SYSTEM32\SQMAPI.DLL
C:\WINDOWS\SYSTEM32\BCRYPT.DLL
C:\WINDOWS\SYSTEM32\PROFAPI.DLL
C:\WINDOWS\SYSTEM32\CLBCATQ.DLL
C:\WINDOWS\SYSTEM32\CRYPTSP.DLL
C:\WINDOWS\SYSTEM32\RSAENH.DLL
C:\WINDOWS\ASSEMBLY\NATIVEIMAGES_V4.0.30319_32\SYSTEM.CONFIGURATION\7E892EDC81C95C88DA69F42F591BE611\SYSTEM.CONFIGURATION.NI.DLL
C:\WINDOWS\ASSEMBLY\NATIVEIMAGES_V4.0.30319_32\SYSTEM.XML\70252E7FB1F7BA07A4D281FC62C7B33E\SYSTEM.XML.NI.DLL
C:\WINDOWS\ASSEMBLY\NATIVEIMAGES_V4.0.30319_32\SYSTEM.DRAWING\772E4A9FEB9977A8BB29DAA474824E61\SYSTEM.DRAWING.NI.DLL
C:\WINDOWS\ASSEMBLY\NATIVEIMAGES_V4.0.30319_32\SYSTEM.WINDOWS.FORMS\5F150B14221D71A468B341969BC41E3B\SYSTEM.WINDOWS.FORMS.NI.DLL
C:\WINDOWS\SYSTEM32\RASAPI32.DLL
C:\WINDOWS\SYSTEM32\RASMAN.DLL
C:\WINDOWS\SYSTEM32\WS2_32.DLL
C:\WINDOWS\SYSTEM32\NSI.DLL
C:\WINDOWS\SYSTEM32\RTUTILS.DLL
C:\WINDOWS\SYSTEM32\MSWSOCK.DLL
C:\WINDOWS\SYSTEM32\UXTHEME.DLL
C:\WINDOWS\SYSTEM32\WINHTTP.DLL
C:\WINDOWS\SYSTEM32\IPHLPAPI.DLL
C:\WINDOWS\SYSTEM32\WINNSI.DLL
C:\WINDOWS\SYSTEM32\DHCPCSVC6.DLL
C:\WINDOWS\SYSTEM32\DHCPCSVC.DLL
C:\WINDOWS\WINSXS\X86_MICROSOFT.WINDOWS.GDIPLUS_6595B64144CCF1DF_1.1.9600.18790_NONE_DAE0E7DE5BC4763C\GDIPLUS.DLL
C:\WINDOWS\SYSTEM32\DNSAPI.DLL
C:\WINDOWS\SYSTEM32\WKSCLI.DLL
C:\WINDOWS\SYSTEM32\NETUTILS.DLL
C:\WINDOWS\SYSTEM32\RASADHLP.DLL
C:\WINDOWS\SYSTEM32\FWPUCLNT.DLL
C:\WINDOWS\SYSTEM32\PSAPI.DLL
C:\WINDOWS\SYSTEM32\SECUR32.DLL
C:\WINDOWS\SYSTEM32\SCHANNEL.DLL
C:\WINDOWS\SYSTEM32\CRYPT32.DLL
C:\WINDOWS\SYSTEM32\MSASN1.DLL
C:\WINDOWS\SYSTEM32\NCRYPT.DLL
C:\WINDOWS\SYSTEM32\NTASN1.DLL
C:\WINDOWS\SYSTEM32\NCRYPTSSLP.DLL
C:\WINDOWS\SYSTEM32\GPAPI.DLL
C:\WINDOWS\ASSEMBLY\NATIVEIMAGES_V4.0.30319_32\SYSTEM.XML.LINQ\F0D86EE4128A84D2460E3FD6E51695BA\SYSTEM.XML.LINQ.NI.DLL
C:\WINDOWS\MICROSOFT.NET\FRAMEWORK\V4.0.30319\DIASYMREADER.DLL
C:\WINDOWS\ASSEMBLY\NATIVEIMAGES_V4.0.30319_32\SYSTEM.NET.HTTP\91D6335BCBD615BF9CD338DF83DDDEC8\SYSTEM.NET.HTTP.NI.DLL
C:\WINDOWS\MICROSOFT.NET\FRAMEWORK\V4.0.30319\CLRCOMPRESSION.DLL
C:\WINDOWS\SYSTEM32\WER.DLL
C:\WINDOWS\SYSTEM32\NTMARTA.DLL
C:\WINDOWS\SYSTEM32\DBGHELP.DLL
C:\PROGRAM FILES (X86)\MICROSOFT VISUAL STUDIO 14.0\VC\BIN\VCTIP.EXE
C:\WINDOWS\SYSTEM32\NTDLL.DLL
C:\WINDOWS\SYSTEM32\MSCOREE.DLL
C:\WINDOWS\SYSTEM32\KERNEL32.DLL
C:\WINDOWS\SYSTEM32\KERNELBASE.DLL
C:\PROGRAM FILES (X86)\MSBUILD\14.0\BIN\FILETRACKER.DLL
C:\WINDOWS\SYSTEM32\API-MS-WIN-CRT-STDIO-L1-1-0.DLL
C:\WINDOWS\SYSTEM32\VCRUNTIME140.DLL
C:\WINDOWS\SYSTEM32\API-MS-WIN-CRT-RUNTIME-L1-1-0.DLL
C:\WINDOWS\SYSTEM32\API-MS-WIN-CRT-MATH-L1-1-0.DLL
C:\WINDOWS\SYSTEM32\API-MS-WIN-CRT-LOCALE-L1-1-0.DLL
C:\WINDOWS\SYSTEM32\API-MS-WIN-CRT-HEAP-L1-1-0.DLL
C:\WINDOWS\SYSTEM32\ADVAPI32.DLL
C:\WINDOWS\SYSTEM32\API-MS-WIN-CRT-STRING-L1-1-0.DLL
C:\WINDOWS\SYSTEM32\API-MS-WIN-CRT-FILESYSTEM-L1-1-0.DLL
C:\WINDOWS\SYSTEM32\API-MS-WIN-CRT-CONVERT-L1-1-0.DLL
C:\WINDOWS\SYSTEM32\OLE32.DLL
C:\WINDOWS\SYSTEM32\OLEAUT32.DLL
C:\WINDOWS\SYSTEM32\MSVCP140.DLL
C:\WINDOWS\SYSTEM32\SHELL32.DLL
C:\WINDOWS\SYSTEM32\MSVCRT.DLL
C:\WINDOWS\SYSTEM32\SECHOST.DLL
C:\WINDOWS\SYSTEM32\RPCRT4.DLL
C:\WINDOWS\SYSTEM32\COMBASE.DLL
C:\WINDOWS\SYSTEM32\GDI32.DLL
C:\WINDOWS\SYSTEM32\USER32.DLL
C:\WINDOWS\SYSTEM32\API-MS-WIN-CRT-MULTIBYTE-L1-1-0.DLL
C:\WINDOWS\SYSTEM32\API-MS-WIN-CRT-TIME-L1-1-0.DLL
C:\WINDOWS\SYSTEM32\API-MS-WIN-CRT-ENVIRONMENT-L1-1-0.DLL
C:\WINDOWS\SYSTEM32\API-MS-WIN-CRT-UTILITY-L1-1-0.DLL
C:\WINDOWS\SYSTEM32\SHLWAPI.DLL
C:\WINDOWS\SYSTEM32\CRYPTBASE.DLL
C:\WINDOWS\SYSTEM32\SSPICLI.DLL
C:\WINDOWS\SYSTEM32\UCRTBASE.DLL
C:\WINDOWS\SYSTEM32\BCRYPTPRIMITIVES.DLL
C:\WINDOWS\SYSTEM32\IMM32.DLL
C:\WINDOWS\SYSTEM32\MSCTF.DLL
C:\WINDOWS\MICROSOFT.NET\FRAMEWORK\V4.0.30319\MSCOREEI.DLL
C:\WINDOWS\SYSTEM32\KERNEL.APPCORE.DLL
C:\WINDOWS\SYSTEM32\VERSION.DLL
C:\WINDOWS\MICROSOFT.NET\FRAMEWORK\V4.0.30319\CLR.DLL
C:\WINDOWS\SYSTEM32\MSVCR120_CLR0400.DLL
C:\WINDOWS\ASSEMBLY\NATIVEIMAGES_V4.0.30319_32\MSCORLIB\30BF1921503412FA2B0B70C448BD4AB8\MSCORLIB.NI.DLL
C:\WINDOWS\MICROSOFT.NET\FRAMEWORK\V4.0.30319\CLRJIT.DLL
C:\WINDOWS\SYSTEM32\SHCORE.DLL
C:\WINDOWS\ASSEMBLY\NATIVEIMAGES_V4.0.30319_32\SYSTEM\ACAA4A27790585D396DE253BA8571993\SYSTEM.NI.DLL
C:\WINDOWS\ASSEMBLY\NATIVEIMAGES_V4.0.30319_32\SYSTEM.CORE\889079047A55609489D42A37C04478C7\SYSTEM.CORE.NI.DLL
C:\WINDOWS\SYSTEM32\SQMAPI.DLL
C:\WINDOWS\SYSTEM32\BCRYPT.DLL
C:\WINDOWS\SYSTEM32\PROFAPI.DLL
C:\WINDOWS\SYSTEM32\CLBCATQ.DLL
C:\WINDOWS\SYSTEM32\CRYPTSP.DLL
C:\WINDOWS\SYSTEM32\RSAENH.DLL
C:\WINDOWS\ASSEMBLY\NATIVEIMAGES_V4.0.30319_32\SYSTEM.CONFIGURATION\7E892EDC81C95C88DA69F42F591BE611\SYSTEM.CONFIGURATION.NI.DLL
C:\WINDOWS\ASSEMBLY\NATIVEIMAGES_V4.0.30319_32\SYSTEM.XML\70252E7FB1F7BA07A4D281FC62C7B33E\SYSTEM.XML.NI.DLL
C:\WINDOWS\ASSEMBLY\NATIVEIMAGES_V4.0.30319_32\SYSTEM.DRAWING\772E4A9FEB9977A8BB29DAA474824E61\SYSTEM.DRAWING.NI.DLL
C:\WINDOWS\ASSEMBLY\NATIVEIMAGES_V4.0.30319_32\SYSTEM.WINDOWS.FORMS\5F150B14221D71A468B341969BC41E3B\SYSTEM.WINDOWS.FORMS.NI.DLL
C:\WINDOWS\SYSTEM32\RASAPI32.DLL
C:\WINDOWS\SYSTEM32\RASMAN.DLL
C:\WINDOWS\SYSTEM32\WS2_32.DLL
C:\WINDOWS\SYSTEM32\NSI.DLL
C:\WINDOWS\SYSTEM32\RTUTILS.DLL
C:\WINDOWS\SYSTEM32\MSWSOCK.DLL
C:\WINDOWS\SYSTEM32\UXTHEME.DLL
C:\WINDOWS\SYSTEM32\WINHTTP.DLL
C:\WINDOWS\SYSTEM32\IPHLPAPI.DLL
C:\WINDOWS\SYSTEM32\WINNSI.DLL
C:\WINDOWS\SYSTEM32\DHCPCSVC6.DLL
C:\WINDOWS\SYSTEM32\DHCPCSVC.DLL
C:\WINDOWS\WINSXS\X86_MICROSOFT.WINDOWS.GDIPLUS_6595B64144CCF1DF_1.1.9600.18790_NONE_DAE0E7DE5BC4763C\GDIPLUS.DLL
C:\WINDOWS\SYSTEM32\DNSAPI.DLL
C:\WINDOWS\SYSTEM32\WKSCLI.DLL
C:\WINDOWS\SYSTEM32\NETUTILS.DLL
C:\WINDOWS\SYSTEM32\RASADHLP.DLL
C:\WINDOWS\SYSTEM32\FWPUCLNT.DLL
C:\WINDOWS\SYSTEM32\PSAPI.DLL
C:\WINDOWS\SYSTEM32\SECUR32.DLL
C:\WINDOWS\SYSTEM32\SCHANNEL.DLL
C:\WINDOWS\SYSTEM32\CRYPT32.DLL
C:\WINDOWS\SYSTEM32\MSASN1.DLL
C:\WINDOWS\SYSTEM32\NCRYPT.DLL
C:\WINDOWS\SYSTEM32\NTASN1.DLL
C:\WINDOWS\SYSTEM32\NCRYPTSSLP.DLL
C:\WINDOWS\SYSTEM32\GPAPI.DLL
C:\WINDOWS\ASSEMBLY\NATIVEIMAGES_V4.0.30319_32\SYSTEM.XML.LINQ\F0D86EE4128A84D2460E3FD6E51695BA\SYSTEM.XML.LINQ.NI.DLL
C:\WINDOWS\MICROSOFT.NET\FRAMEWORK\V4.0.30319\DIASYMREADER.DLL
C:\WINDOWS\ASSEMBLY\NATIVEIMAGES_V4.0.30319_32\SYSTEM.NET.HTTP\91D6335BCBD615BF9CD338DF83DDDEC8\SYSTEM.NET.HTTP.NI.DLL
C:\WINDOWS\MICROSOFT.NET\FRAMEWORK\V4.0.30319\CLRCOMPRESSION.DLL
C:\WINDOWS\SYSTEM32\WER.DLL
C:\WINDOWS\SYSTEM32\NTMARTA.DLL
C:\WINDOWS\SYSTEM32\DBGHELP.DLL
C:\PROGRAM FILES (X86)\MICROSOFT VISUAL STUDIO 14.0\VC\BIN\VCTIP.EXE
C:\WINDOWS\SYSTEM32\NTDLL.DLL
C:\WINDOWS\SYSTEM32\MSCOREE.DLL
C:\WINDOWS\SYSTEM32\KERNEL32.DLL
C:\WINDOWS\SYSTEM32\KERNELBASE.DLL
C:\PROGRAM FILES (X86)\MSBUILD\14.0\BIN\FILETRACKER.DLL
C:\WINDOWS\SYSTEM32\API-MS-WIN-CRT-STDIO-L1-1-0.DLL
C:\WINDOWS\SYSTEM32\VCRUNTIME140.DLL
C:\WINDOWS\SYSTEM32\API-MS-WIN-CRT-RUNTIME-L1-1-0.DLL
C:\WINDOWS\SYSTEM32\API-MS-WIN-CRT-MATH-L1-1-0.DLL
C:\WINDOWS\SYSTEM32\API-MS-WIN-CRT-LOCALE-L1-1-0.DLL
C:\WINDOWS\SYSTEM32\API-MS-WIN-CRT-HEAP-L1-1-0.DLL
C:\WINDOWS\SYSTEM32\ADVAPI32.DLL
C:\WINDOWS\SYSTEM32\API-MS-WIN-CRT-STRING-L1-1-0.DLL
C:\WINDOWS\SYSTEM32\API-MS-WIN-CRT-FILESYSTEM-L1-1-0.DLL
C:\WINDOWS\SYSTEM32\API-MS-WIN-CRT-CONVERT-L1-1-0.DLL
C:\WINDOWS\SYSTEM32\OLE32.DLL
C:\WINDOWS\SYSTEM32\OLEAUT32.DLL
C:\WINDOWS\SYSTEM32\MSVCP140.DLL
C:\WINDOWS\SYSTEM32\SHELL32.DLL
C:\WINDOWS\SYSTEM32\MSVCRT.DLL
C:\WINDOWS\SYSTEM32\SECHOST.DLL
C:\WINDOWS\SYSTEM32\RPCRT4.DLL
C:\WINDOWS\SYSTEM32\COMBASE.DLL
C:\WINDOWS\SYSTEM32\GDI32.DLL
C:\WINDOWS\SYSTEM32\USER32.DLL
C:\WINDOWS\SYSTEM32\API-MS-WIN-CRT-MULTIBYTE-L1-1-0.DLL
C:\WINDOWS\SYSTEM32\API-MS-WIN-CRT-TIME-L1-1-0.DLL
C:\WINDOWS\SYSTEM32\API-MS-WIN-CRT-ENVIRONMENT-L1-1-0.DLL
C:\WINDOWS\SYSTEM32\API-MS-WIN-CRT-UTILITY-L1-1-0.DLL
C:\WINDOWS\SYSTEM32\SHLWAPI.DLL
C:\WINDOWS\SYSTEM32\CRYPTBASE.DLL
C:\WINDOWS\SYSTEM32\SSPICLI.DLL
C:\WINDOWS\SYSTEM32\UCRTBASE.DLL
C:\WINDOWS\SYSTEM32\BCRYPTPRIMITIVES.DLL
C:\WINDOWS\SYSTEM32\IMM32.DLL
C:\WINDOWS\SYSTEM32\MSCTF.DLL
C:\WINDOWS\MICROSOFT.NET\FRAMEWORK\V4.0.30319\MSCOREEI.DLL
C:\WINDOWS\SYSTEM32\KERNEL.APPCORE.DLL
C:\WINDOWS\SYSTEM32\VERSION.DLL
C:\WINDOWS\MICROSOFT.NET\FRAMEWORK\V4.0.30319\CLR.DLL
C:\WINDOWS\SYSTEM32\MSVCR120_CLR0400.DLL
C:\WINDOWS\ASSEMBLY\NATIVEIMAGES_V4.0.30319_32\MSCORLIB\30BF1921503412FA2B0B70C448BD4AB8\MSCORLIB.NI.DLL
C:\WINDOWS\MICROSOFT.NET\FRAMEWORK\V4.0.30319\CLRJIT.DLL
C:\WINDOWS\SYSTEM32\SHCORE.DLL
C:\WINDOWS\ASSEMBLY\NATIVEIMAGES_V4.0.30319_32\SYSTEM\ACAA4A27790585D396DE253BA8571993\SYSTEM.NI.DLL
C:\WINDOWS\ASSEMBLY\NATIVEIMAGES_V4.0.30319_32\SYSTEM.CORE\889079047A55609489D42A37C04478C7\SYSTEM.CORE.NI.DLL
C:\WINDOWS\SYSTEM32\SQMAPI.DLL
C:\WINDOWS\SYSTEM32\BCRYPT.DLL
C:\WINDOWS\SYSTEM32\PROFAPI.DLL
C:\WINDOWS\SYSTEM32\CLBCATQ.DLL
C:\WINDOWS\SYSTEM32\CRYPTSP.DLL
C:\WINDOWS\SYSTEM32\RSAENH.DLL
C:\WINDOWS\ASSEMBLY\NATIVEIMAGES_V4.0.30319_32\SYSTEM.CONFIGURATION\7E892EDC81C95C88DA69F42F591BE611\SYSTEM.CONFIGURATION.NI.DLL
C:\WINDOWS\ASSEMBLY\NATIVEIMAGES_V4.0.30319_32\SYSTEM.XML\70252E7FB1F7BA07A4D281FC62C7B33E\SYSTEM.XML.NI.DLL
C:\WINDOWS\ASSEMBLY\NATIVEIMAGES_V4.0.30319_32\SYSTEM.DRAWING\772E4A9FEB9977A8BB29DAA474824E61\SYSTEM.DRAWING.NI.DLL
C:\WINDOWS\ASSEMBLY\NATIVEIMAGES_V4.0.30319_32\SYSTEM.WINDOWS.FORMS\5F150B14221D71A468B341969BC41E3B\SYSTEM.WINDOWS.FORMS.NI.DLL
C:\WINDOWS\SYSTEM32\RASAPI32.DLL
C:\WINDOWS\SYSTEM32\RASMAN.DLL
C:\WINDOWS\SYSTEM32\WS2_32.DLL
C:\WINDOWS\SYSTEM32\NSI.DLL
C:\WINDOWS\SYSTEM32\RTUTILS.DLL
C:\WINDOWS\SYSTEM32\MSWSOCK.DLL
C:\WINDOWS\SYSTEM32\UXTHEME.DLL
C:\WINDOWS\SYSTEM32\WINHTTP.DLL
C:\WINDOWS\SYSTEM32\IPHLPAPI.DLL
C:\WINDOWS\SYSTEM32\WINNSI.DLL
C:\WINDOWS\SYSTEM32\DHCPCSVC6.DLL
C:\WINDOWS\SYSTEM32\DHCPCSVC.DLL
C:\WINDOWS\WINSXS\X86_MICROSOFT.WINDOWS.GDIPLUS_6595B64144CCF1DF_1.1.9600.18790_NONE_DAE0E7DE5BC4763C\GDIPLUS.DLL
C:\WINDOWS\SYSTEM32\DNSAPI.DLL
C:\WINDOWS\SYSTEM32\WKSCLI.DLL
C:\WINDOWS\SYSTEM32\NETUTILS.DLL
C:\WINDOWS\SYSTEM32\RASADHLP.DLL
C:\WINDOWS\SYSTEM32\FWPUCLNT.DLL
C:\WINDOWS\SYSTEM32\PSAPI.DLL
C:\WINDOWS\SYSTEM32\SECUR32.DLL
C:\WINDOWS\SYSTEM32\SCHANNEL.DLL
C:\WINDOWS\SYSTEM32\CRYPT32.DLL
C:\WINDOWS\SYSTEM32\MSASN1.DLL
C:\WINDOWS\SYSTEM32\NCRYPT.DLL
C:\WINDOWS\SYSTEM32\NTASN1.DLL
C:\WINDOWS\SYSTEM32\NCRYPTSSLP.DLL
C:\WINDOWS\SYSTEM32\GPAPI.DLL
C:\WINDOWS\ASSEMBLY\NATIVEIMAGES_V4.0.30319_32\SYSTEM.XML.LINQ\F0D86EE4128A84D2460E3FD6E51695BA\SYSTEM.XML.LINQ.NI.DLL
C:\WINDOWS\MICROSOFT.NET\FRAMEWORK\V4.0.30319\DIASYMREADER.DLL
C:\WINDOWS\ASSEMBLY\NATIVEIMAGES_V4.0.30319_32\SYSTEM.NET.HTTP\91D6335BCBD615BF9CD338DF83DDDEC8\SYSTEM.NET.HTTP.NI.DLL
C:\WINDOWS\MICROSOFT.NET\FRAMEWORK\V4.0.30319\CLRCOMPRESSION.DLL
C:\WINDOWS\SYSTEM32\WER.DLL
C:\WINDOWS\SYSTEM32\NTMARTA.DLL
C:\WINDOWS\SYSTEM32\DBGHELP.DLL
