^C:\USERS\GREGOR\SOURCE\REPOS\PA2\PA2\DEBUG\GLAD.OBJ|C:\USERS\GREGOR\SOURCE\REPOS\PA2\PA2\DEBUG\MAIN.OBJ
C:\USERS\GREGOR\SOURCE\REPOS\PA2\DEBUG\PA2.EXE
C:\USERS\GREGOR\SOURCE\REPOS\PA2\DEBUG\PA2.ILK
C:\USERS\GREGOR\SOURCE\REPOS\PA2\DEBUG\PA2.PDB
